FIFO/dump.vcd
$date
	Wed Nov 22 19:08:38 2023
$end
$version
	QuestaSim Version 2021.2_1
$end
$timescale
	1ns
$end

$scope module tb $end

$scope module dut $end
$var wire 1 ! clock $end
$var wire 1 " rd $end
$var wire 1 # wr $end
$var wire 1 $ full $end
$var wire 1 % empty $end
$var wire 1 & data_in [7] $end
$var wire 1 ' data_in [6] $end
$var wire 1 ( data_in [5] $end
$var wire 1 ) data_in [4] $end
$var wire 1 * data_in [3] $end
$var wire 1 + data_in [2] $end
$var wire 1 , data_in [1] $end
$var wire 1 - data_in [0] $end
$var reg 8 . data_out [7:0] $end
$var wire 1 / rst $end
$var reg 5 0 wr_ptr [4:0] $end
$var reg 5 1 rd_ptr [4:0] $end
$upscope $end
$upscope $end

$scope begin fifo_tb_sv_unit $end
$upscope $end

$scope begin std $end
$upscope $end
$enddefinitions $end
#0
$dumpvars
bx .
bx 0
bx 1
1/
0-
0,
0+
0*
0)
0(
0'
0&
0#
0"
0!
x$
x%
$end
#10
1!
b0 .
b0 1
b0 0
0$
1%
#20
0!
#30
1!
#40
0!
#50
1!
#60
0!
#70
1!
#80
0!
#90
1!
0/
1#
1+
#100
0!
#110
1!
b1 0
0%
#120
0!
#130
1!
b10 0
1-
1,
0+
#140
0!
#150
1!
b11 0
#160
0!
#170
1!
b100 0
0-
#180
0!
#190
1!
b101 0
#200
0!
#210
1!
b110 0
1"
0#
1-
#220
0!
#230
1!
b1 1
b100 .
#240
0!
#250
1!
b10 1
0"
1#
#260
0!
#270
1!
b111 0
#280
0!
#290
1!
b1000 0
1"
0#
#300
0!
#310
1!
b11 1
b11 .
#320
0!
#330
1!
b100 1
0-
#340
0!
#350
1!
b101 1
b10 .
#360
0!
#370
1!
b110 1
0"
1#
#380
0!
#390
1!
b1001 0
#400
0!
#410
1!
b1010 0
0,
1+
#420
0!
#430
1!
b1011 0
#440
0!
#450
1!
b1100 0
1,
0+
#460
0!
#470
1!
b1101 0
#480
0!
#490
1!
b1110 0
0,
1+
#500
0!
#510
1!
b1111 0
#520
0!
#530
1!
b10000 0
1"
0#
1-
1,
0+
#540
0!
#550
1!
b111 1
b11 .
#560
0!
#570
1!
b1000 1
0"
1#
#580
0!
#590
1!
b10001 0
#600
0!
#610
1!
b10010 0
#620
0!
#630
1!
b10011 0
#640
0!
#650
1!
b10100 0
1"
0#
#660
0!
#670
1!
b1001 1
b10 .
#680
0!
#690
1!
b1010 1
0"
1#
0-
0,
1+
#700
0!
#710
1!
b10101 0
#720
0!
#730
1!
b10110 0
1-
1,
0+
#740
0!
#750
1!
b10111 0
#760
0!
#770
1!
b11000 0
1"
0#
0-
#780
0!
#790
1!
b1011 1
b100 .
#800
0!
#810
1!
b1100 1
0"
1#
1-
#820
0!
#830
1!
b11001 0
#840
0!
#850
1!
b11010 0
#860
0!
#870
1!
b11011 0
#880
0!
#890
1!
b11100 0
