I2C/dump.vcd
$date
	Wed Nov 15 01:03:20 2023
$end
$version
	QuestaSim Version 2021.2_1
$end
$timescale
	1ns
$end

$scope module tb $end
$var event 1 ! nextgd $end
$var event 1 " nextgs $end

$scope task pre_test $end
$upscope $end

$scope task test $end
$upscope $end

$scope task post_test $end
$upscope $end

$scope task run $end
$upscope $end
$upscope $end
$enddefinitions $end
#0
$dumpvars
1!
1"
$end
#625
1!
#645
1"
#1145
1!
#1165
1"
#1685
1!
#1705
1"
#2205
1!
#2225
1"
#2745
1!
#2765
1"
#3285
1!
#3305
1"
#3805
1!
#3825
1"
#4345
1!
#4365
1"
#4865
1!
#4885
1"
#5405
1!
#5425
1"
#5945
1!
#5965
1"
#6465
1!
#6485
1"
#7005
1!
#7025
1"
#7525
1!
#7545
1"
#8065
1!
#8085
1"
#8585
1!
#8605
1"
#9125
1!
#9145
1"
#9645
1!
#9665
1"
#10165
1!
#10185
1"
#10685
1!
#10705
1"
