APB_RAM/dump.vcd
$date
	Tue Dec  5 09:02:04 2023
$end
$version
	QuestaSim Version 2021.2_1
$end
$timescale
	1ns
$end

$scope module tb $end

$scope module dut $end
$var wire 1 ! presetn $end
$var wire 1 " pclk $end
$var wire 1 # psel $end
$var wire 1 $ penable $end
$var wire 1 % pwrite $end
$var wire 1 & paddr [31] $end
$var wire 1 ' paddr [30] $end
$var wire 1 ( paddr [29] $end
$var wire 1 ) paddr [28] $end
$var wire 1 * paddr [27] $end
$var wire 1 + paddr [26] $end
$var wire 1 , paddr [25] $end
$var wire 1 - paddr [24] $end
$var wire 1 . paddr [23] $end
$var wire 1 / paddr [22] $end
$var wire 1 0 paddr [21] $end
$var wire 1 1 paddr [20] $end
$var wire 1 2 paddr [19] $end
$var wire 1 3 paddr [18] $end
$var wire 1 4 paddr [17] $end
$var wire 1 5 paddr [16] $end
$var wire 1 6 paddr [15] $end
$var wire 1 7 paddr [14] $end
$var wire 1 8 paddr [13] $end
$var wire 1 9 paddr [12] $end
$var wire 1 : paddr [11] $end
$var wire 1 ; paddr [10] $end
$var wire 1 < paddr [9] $end
$var wire 1 = paddr [8] $end
$var wire 1 > paddr [7] $end
$var wire 1 ? paddr [6] $end
$var wire 1 @ paddr [5] $end
$var wire 1 A paddr [4] $end
$var wire 1 B paddr [3] $end
$var wire 1 C paddr [2] $end
$var wire 1 D paddr [1] $end
$var wire 1 E paddr [0] $end
$var wire 1 F pwdata [31] $end
$var wire 1 G pwdata [30] $end
$var wire 1 H pwdata [29] $end
$var wire 1 I pwdata [28] $end
$var wire 1 J pwdata [27] $end
$var wire 1 K pwdata [26] $end
$var wire 1 L pwdata [25] $end
$var wire 1 M pwdata [24] $end
$var wire 1 N pwdata [23] $end
$var wire 1 O pwdata [22] $end
$var wire 1 P pwdata [21] $end
$var wire 1 Q pwdata [20] $end
$var wire 1 R pwdata [19] $end
$var wire 1 S pwdata [18] $end
$var wire 1 T pwdata [17] $end
$var wire 1 U pwdata [16] $end
$var wire 1 V pwdata [15] $end
$var wire 1 W pwdata [14] $end
$var wire 1 X pwdata [13] $end
$var wire 1 Y pwdata [12] $end
$var wire 1 Z pwdata [11] $end
$var wire 1 [ pwdata [10] $end
$var wire 1 \ pwdata [9] $end
$var wire 1 ] pwdata [8] $end
$var wire 1 ^ pwdata [7] $end
$var wire 1 _ pwdata [6] $end
$var wire 1 ` pwdata [5] $end
$var wire 1 a pwdata [4] $end
$var wire 1 b pwdata [3] $end
$var wire 1 c pwdata [2] $end
$var wire 1 d pwdata [1] $end
$var wire 1 e pwdata [0] $end
$var reg 32 f prdata [31:0] $end
$var reg 1 g pready $end
$var reg 1 h pslverr $end
$var integer 32 i state $end
$upscope $end
$upscope $end

$scope begin apb_ram_tb_sv_unit $end
$upscope $end

$scope begin std $end
$upscope $end
$enddefinitions $end
#0
$dumpvars
bx f
xg
xh
b0 i
0e
0d
0c
0b
0a
0`
0_
0^
0]
0\
0[
0Z
0Y
0X
0W
0V
0U
0T
0S
0R
0Q
0P
0O
0N
0M
0L
0K
0J
0I
0H
0G
0F
0E
0D
0C
0B
0A
0@
0?
0>
0=
0<
0;
0:
09
08
07
06
05
04
03
02
01
00
0/
0.
0-
0,
0+
0*
0)
0(
0'
0&
0%
0$
0#
0"
0!
$end
#10
1"
b0 f
0g
0h
#20
0"
#30
1"
#40
0"
#50
1"
#60
0"
#70
1"
#80
0"
#90
1"
1!
#100
0"
#110
1"
b1 i
#120
0"
#130
1"
#140
0"
#150
1"
#160
0"
#170
1"
#180
0"
#190
1"
#200
0"
#210
1"
1#
1C
1c
1%
#220
0"
#230
1"
b10 i
1g
1$
#240
0"
#250
1"
b11 i
#260
0"
#270
1"
b1 i
0g
0#
0$
0%
#280
0"
#290
1"
#300
0"
#310
1"
1#
1d
0c
#320
0"
#330
1"
b10 i
1g
1$
#340
0"
#350
1"
b100 f
b11 i
#360
0"
#370
1"
b1 i
0g
0#
0$
#380
0"
#390
1"
#400
0"
#410
1"
1#
1D
0C
1c
1%
#420
0"
#430
1"
b10 i
1g
1$
#440
0"
#450
1"
b11 i
#460
0"
#470
1"
b1 i
0g
0#
0$
0%
#480
0"
#490
1"
#500
0"
#510
1"
1#
0D
1A
1@
1e
0d
#520
0"
#530
1"
b10 i
1$
#540
0"
#550
1"
b11 i
1g
1h
bx f
#560
0"
#570
1"
b1 i
0g
0h
0#
0$
#580
0"
#590
1"
#600
0"
#610
1"
1#
1D
0A
0@
0e
#620
0"
#630
1"
b10 i
1g
1$
#640
0"
#650
1"
b110 f
b11 i
#660
0"
#670
1"
b1 i
0g
0#
0$
#680
0"
#690
1"
#700
0"
#710
1"
1#
1E
0D
1C
1B
1A
1?
1d
1%
#720
0"
#730
1"
b10 i
1$
#740
0"
#750
1"
b11 i
1g
1h
#760
0"
#770
1"
b1 i
0g
0h
0#
0$
0%
#780
0"
#790
1"
#800
0"
#810
1"
1#
0E
1D
0C
0B
0A
0?
0c
1%
#820
0"
#830
1"
b10 i
1g
1$
#840
0"
#850
1"
b11 i
#860
0"
#870
1"
b1 i
0g
0#
0$
0%
#880
0"
#890
1"
#900
0"
#910
1"
1#
0D
1C
1c
#920
0"
#930
1"
b10 i
1g
1$
#940
0"
#950
1"
b100 f
b11 i
#960
0"
#970
1"
b1 i
0g
0#
0$
#980
0"
#990
1"
#1000
0"
#1010
1"
1#
0c
1%
#1020
0"
#1030
1"
b10 i
1g
1$
#1040
0"
#1050
1"
b11 i
#1060
0"
#1070
1"
b1 i
0g
0#
0$
0%
#1080
0"
#1090
1"
#1100
0"
#1110
1"
1#
1@
1?
0d
1b
#1120
0"
#1130
1"
b10 i
1$
#1140
0"
#1150
1"
b11 i
1g
1h
bx f
#1160
0"
#1170
1"
b1 i
0g
0h
0#
0$
#1180
0"
#1190
1"
#1200
0"
#1210
1"
1#
0@
0?
1e
1d
0b
#1220
0"
#1230
1"
b10 i
1g
1$
#1240
0"
#1250
1"
b10 f
b11 i
#1260
0"
#1270
1"
b1 i
0g
0#
0$
#1280
0"
#1290
1"
#1300
0"
#1310
1"
1#
1E
1D
0C
0e
#1320
0"
#1330
1"
b10 i
1g
1$
#1340
0"
#1350
1"
b0 f
b11 i
#1360
0"
#1370
1"
b1 i
0g
0#
0$
#1380
0"
#1390
1"
#1400
0"
#1410
1"
1#
0E
0D
1C
1e
0d
1b
1%
#1420
0"
#1430
1"
b10 i
1g
1$
#1440
0"
#1450
1"
b11 i
#1460
0"
#1470
1"
b1 i
0g
0#
0$
0%
#1480
0"
#1490
1"
#1500
0"
#1510
1"
1#
1D
0C
1c
0b
1%
#1520
0"
#1530
1"
b10 i
1g
1$
#1540
0"
#1550
1"
b11 i
#1560
0"
#1570
1"
b1 i
0g
0#
0$
0%
#1580
0"
#1590
1"
#1600
0"
#1610
1"
1#
1E
0D
1A
1@
0e
1d
0c
1%
#1620
0"
#1630
1"
b10 i
1$
#1640
0"
#1650
1"
b11 i
1g
1h
#1660
0"
#1670
1"
b1 i
0g
0h
0#
0$
0%
#1680
0"
#1690
1"
#1700
0"
#1710
1"
1#
0E
1C
0A
0@
1e
#1720
0"
#1730
1"
b10 i
1g
1$
#1740
0"
#1750
1"
b1001 f
b11 i
#1760
0"
#1770
1"
b1 i
0g
0#
0$
#1780
0"
#1790
1"
#1800
0"
#1810
1"
1#
0e
0d
1c
#1820
0"
#1830
1"
b10 i
1g
1$
#1840
0"
#1850
1"
b11 i
#1860
0"
#1870
1"
b1 i
0g
0#
0$
#1880
0"
#1890
1"
#1900
0"
#1910
1"
1#
1D
0C
1e
0c
1b
1%
#1920
0"
#1930
1"
b10 i
1g
1$
#1940
0"
#1950
1"
b11 i
#1960
0"
#1970
1"
b1 i
0g
0#
0$
0%
#1980
0"
#1990
1"
#2000
0"
#2010
1"
1#
1E
1C
1B
1A
1?
0e
1d
1c
0b
#2020
0"
#2030
1"
b10 i
1$
#2040
0"
#2050
1"
b11 i
1g
1h
bx f
#2060
0"
#2070
1"
b1 i
0g
0h
0#
0$
#2080
0"
#2090
1"
#2100
0"
#2110
1"
1#
0C
0B
0A
0?
0d
1%
#2120
0"
#2130
1"
b10 i
1g
1$
#2140
0"
#2150
1"
b11 i
#2160
0"
#2170
1"
b1 i
0g
0#
0$
0%
#2180
0"
#2190
1"
#2200
0"
#2210
1"
1#
1e
1d
0c
1%
#2220
0"
#2230
1"
b10 i
1g
1$
#2240
0"
#2250
1"
b11 i
#2260
0"
#2270
1"
b1 i
0g
0#
0$
0%
#2280
0"
#2290
1"
#2300
0"
#2310
1"
1#
0d
1c
1%
#2320
0"
#2330
1"
b10 i
1g
1$
#2340
0"
#2350
1"
b11 i
#2360
0"
#2370
1"
b1 i
0g
0#
0$
0%
#2380
0"
#2390
1"
#2400
0"
#2410
1"
1#
0E
0D
1B
1A
1?
0c
1b
#2420
0"
#2430
1"
b10 i
1$
#2440
0"
#2450
1"
b11 i
1g
1h
#2460
0"
#2470
1"
b1 i
0g
0h
0#
0$
#2480
0"
#2490
1"
#2500
0"
#2510
1"
1#
1C
0B
0A
0?
#2520
0"
#2530
1"
b10 i
1g
1$
#2540
0"
#2550
1"
b1001 f
b11 i
#2560
0"
#2570
1"
b1 i
0g
0#
0$
#2580
0"
#2590
1"
#2600
0"
#2610
1"
1#
1D
0C
1d
1c
0b
1%
#2620
0"
#2630
1"
b10 i
1g
1$
#2640
0"
#2650
1"
b11 i
#2660
0"
#2670
1"
b1 i
0g
0#
0$
0%
#2680
0"
#2690
1"
#2700
0"
#2710
1"
1#
0d
1%
#2720
0"
#2730
1"
b10 i
1g
1$
#2740
0"
#2750
1"
b11 i
#2760
0"
#2770
1"
b1 i
0g
0#
0$
0%
#2780
0"
#2790
1"
#2800
0"
#2810
1"
1#
1E
0e
#2820
0"
#2830
1"
b10 i
1g
1$
#2840
0"
#2850
1"
b101 f
b11 i
#2860
0"
#2870
1"
b1 i
0g
0#
0$
#2880
0"
#2890
1"
#2900
0"
#2910
1"
1#
0E
0D
1A
1@
1e
1d
0c
#2920
0"
#2930
1"
b10 i
1$
#2940
0"
#2950
1"
b11 i
1g
1h
bx f
#2960
0"
#2970
1"
b1 i
0g
0h
0#
0$
#2980
0"
#2990
1"
#3000
0"
#3010
1"
1#
1C
0A
0@
0e
0d
1c
#3020
0"
#3030
1"
b10 i
1g
1$
#3040
0"
#3050
1"
b1001 f
b11 i
#3060
0"
#3070
1"
b1 i
0g
0#
0$
#3080
0"
#3090
1"
#3100
0"
#3110
1"
1#
1D
0C
1e
1d
0c
1%
#3120
0"
#3130
1"
b10 i
1g
1$
#3140
0"
#3150
1"
b11 i
#3160
0"
#3170
1"
b1 i
0g
0#
0$
0%
