UART/dump.vcd
$date
	Wed Nov 22 18:51:00 2023
$end
$version
	QuestaSim Version 2021.2_1
$end
$timescale
	1ps
$end

$scope module tb $end

$scope module dut $end
$var parameter 32 ! clk_freq $end
$var parameter 32 " baurd_rate $end
$var wire 1 # clk $end
$var wire 1 $ rst $end
$var wire 1 % rx $end
$var wire 1 & dintx [7] $end
$var wire 1 ' dintx [6] $end
$var wire 1 ( dintx [5] $end
$var wire 1 ) dintx [4] $end
$var wire 1 * dintx [3] $end
$var wire 1 + dintx [2] $end
$var wire 1 , dintx [1] $end
$var wire 1 - dintx [0] $end
$var wire 1 . send $end
$var wire 1 / tx $end
$var wire 1 0 doutrx [7] $end
$var wire 1 1 doutrx [6] $end
$var wire 1 2 doutrx [5] $end
$var wire 1 3 doutrx [4] $end
$var wire 1 4 doutrx [3] $end
$var wire 1 5 doutrx [2] $end
$var wire 1 6 doutrx [1] $end
$var wire 1 7 doutrx [0] $end
$var wire 1 8 donetx $end
$var wire 1 9 donerx $end

$scope module utx $end
$var parameter 32 : clk_freq $end
$var parameter 32 ; baurd_rate $end
$var parameter 32 < clkcount $end
$var wire 1 # clk $end
$var wire 1 $ rst $end
$var wire 1 . send $end
$var wire 1 & tx_data [7] $end
$var wire 1 ' tx_data [6] $end
$var wire 1 ( tx_data [5] $end
$var wire 1 ) tx_data [4] $end
$var wire 1 * tx_data [3] $end
$var wire 1 + tx_data [2] $end
$var wire 1 , tx_data [1] $end
$var wire 1 - tx_data [0] $end
$var reg 1 = tx $end
$var reg 1 > donetx $end
$var integer 32 ? count $end
$var integer 32 @ counts $end
$var reg 1 A uclk $end
$var reg 2 B state [1:0] $end
$var reg 8 C din [7:0] $end
$upscope $end

$scope module urx $end
$var parameter 32 D clk_freq $end
$var parameter 32 E baurd_rate $end
$var parameter 32 F clkcount $end
$var wire 1 # clk $end
$var wire 1 $ rst $end
$var wire 1 % rx $end
$var reg 8 G rx_data [7:0] $end
$var reg 1 H donerx $end
$var integer 32 I count $end
$var integer 32 J counts $end
$var reg 1 K uclk $end
$var reg 2 L state [1:0] $end
$var reg 8 M din [7:0] $end
$upscope $end
$upscope $end
$upscope $end

$scope begin uart_tb_sv_unit $end
$upscope $end

$scope begin std $end
$upscope $end
$enddefinitions $end
#0
$dumpvars
x=
x>
0A
b0 B
bx C
bx G
xH
0K
b0 L
bx M
b11110100001001000000 !
b10010110000000 "
b11110100001001000000 :
b10010110000000 ;
b1101000 <
b11110100001001000000 D
b10010110000000 E
b1101000 F
b0 ?
b0 @
b0 I
b0 J
0.
0-
0,
0+
0*
0)
0(
0'
0&
1%
1$
0#
x/
x7
x6
x5
x4
x3
x2
x1
x0
x8
x9
$end
#10000
1#
b1 ?
b1 I
#20000
0#
#30000
1#
b10 ?
b10 I
#40000
0#
#50000
1#
b11 ?
b11 I
#60000
0#
#70000
1#
b100 ?
b100 I
#80000
0#
#90000
1#
b101 ?
b101 I
#100000
0#
#110000
1#
b110 ?
b110 I
#120000
0#
#130000
1#
b111 ?
b111 I
#140000
0#
#150000
1#
b1000 ?
b1000 I
#160000
0#
#170000
1#
b1001 ?
b1001 I
#180000
0#
#190000
1#
b1010 ?
b1010 I
#200000
0#
#210000
1#
b1011 ?
b1011 I
#220000
0#
#230000
1#
b1100 ?
b1100 I
#240000
0#
#250000
1#
b1101 ?
b1101 I
#260000
0#
#270000
1#
b1110 ?
b1110 I
#280000
0#
#290000
1#
b1111 ?
b1111 I
#300000
0#
#310000
1#
b10000 ?
b10000 I
#320000
0#
#330000
1#
b10001 ?
b10001 I
#340000
0#
#350000
1#
b10010 ?
b10010 I
#360000
0#
#370000
1#
b10011 ?
b10011 I
#380000
0#
#390000
1#
b10100 ?
b10100 I
#400000
0#
#410000
1#
b10101 ?
b10101 I
#420000
0#
#430000
1#
b10110 ?
b10110 I
#440000
0#
#450000
1#
b10111 ?
b10111 I
#460000
0#
#470000
1#
b11000 ?
b11000 I
#480000
0#
#490000
1#
b11001 ?
b11001 I
#500000
0#
#510000
1#
b11010 ?
b11010 I
#520000
0#
#530000
1#
b11011 ?
b11011 I
#540000
0#
#550000
1#
b11100 ?
b11100 I
#560000
0#
#570000
1#
b11101 ?
b11101 I
#580000
0#
#590000
1#
b11110 ?
b11110 I
#600000
0#
#610000
1#
b11111 ?
b11111 I
#620000
0#
#630000
1#
b100000 ?
b100000 I
#640000
0#
#650000
1#
b100001 ?
b100001 I
#660000
0#
#670000
1#
b100010 ?
b100010 I
#680000
0#
#690000
1#
b100011 ?
b100011 I
#700000
0#
#710000
1#
b100100 ?
b100100 I
#720000
0#
#730000
1#
b100101 ?
b100101 I
#740000
0#
#750000
1#
b100110 ?
b100110 I
#760000
0#
#770000
1#
b100111 ?
b100111 I
#780000
0#
#790000
1#
b101000 ?
b101000 I
#800000
0#
#810000
1#
b101001 ?
b101001 I
#820000
0#
#830000
1#
b101010 ?
b101010 I
#840000
0#
#850000
1#
b101011 ?
b101011 I
#860000
0#
#870000
1#
b101100 ?
b101100 I
#880000
0#
#890000
1#
b101101 ?
b101101 I
#900000
0#
#910000
1#
b101110 ?
b101110 I
#920000
0#
#930000
1#
b101111 ?
b101111 I
#940000
0#
#950000
1#
b110000 ?
b110000 I
#960000
0#
#970000
1#
b110001 ?
b110001 I
#980000
0#
#990000
1#
b110010 ?
b110010 I
#1000000
0#
#1010000
1#
b110011 ?
b110011 I
#1020000
0#
#1030000
1#
b110100 ?
b110100 I
#1040000
0#
#1050000
1#
b0 ?
1A
b0 I
1K
b0 G
0H
07
06
05
04
03
02
01
00
09
#1060000
0#
#1070000
1#
b1 ?
b1 I
#1080000
0#
#1090000
1#
b10 ?
b10 I
#1100000
0#
#1110000
1#
b11 ?
b11 I
#1120000
0#
#1130000
1#
b100 ?
b100 I
#1140000
0#
#1150000
1#
b101 ?
b101 I
#1160000
0#
#1170000
1#
b110 ?
b110 I
#1180000
0#
#1190000
1#
b111 ?
b111 I
#1200000
0#
#1210000
1#
b1000 ?
b1000 I
#1220000
0#
#1230000
1#
b1001 ?
b1001 I
#1240000
0#
#1250000
1#
b1010 ?
b1010 I
#1260000
0#
#1270000
1#
b1011 ?
b1011 I
#1280000
0#
#1290000
1#
b1100 ?
b1100 I
#1300000
0#
#1310000
1#
b1101 ?
b1101 I
#1320000
0#
#1330000
1#
b1110 ?
b1110 I
#1340000
0#
#1350000
1#
b1111 ?
b1111 I
#1360000
0#
#1370000
1#
b10000 ?
b10000 I
#1380000
0#
#1390000
1#
b10001 ?
b10001 I
#1400000
0#
#1410000
1#
b10010 ?
b10010 I
#1420000
0#
#1430000
1#
b10011 ?
b10011 I
#1440000
0#
#1450000
1#
b10100 ?
b10100 I
#1460000
0#
#1470000
1#
b10101 ?
b10101 I
#1480000
0#
#1490000
1#
b10110 ?
b10110 I
#1500000
0#
#1510000
1#
b10111 ?
b10111 I
#1520000
0#
#1530000
1#
b11000 ?
b11000 I
#1540000
0#
#1550000
1#
b11001 ?
b11001 I
#1560000
0#
#1570000
1#
b11010 ?
b11010 I
#1580000
0#
#1590000
1#
b11011 ?
b11011 I
#1600000
0#
#1610000
1#
b11100 ?
b11100 I
#1620000
0#
#1630000
1#
b11101 ?
b11101 I
#1640000
0#
#1650000
1#
b11110 ?
b11110 I
#1660000
0#
#1670000
1#
b11111 ?
b11111 I
#1680000
0#
#1690000
1#
b100000 ?
b100000 I
#1700000
0#
#1710000
1#
b100001 ?
b100001 I
#1720000
0#
#1730000
1#
b100010 ?
b100010 I
#1740000
0#
#1750000
1#
b100011 ?
b100011 I
#1760000
0#
#1770000
1#
b100100 ?
b100100 I
#1780000
0#
#1790000
1#
b100101 ?
b100101 I
#1800000
0#
#1810000
1#
b100110 ?
b100110 I
#1820000
0#
#1830000
1#
b100111 ?
b100111 I
#1840000
0#
#1850000
1#
b101000 ?
b101000 I
#1860000
0#
#1870000
1#
b101001 ?
b101001 I
#1880000
0#
#1890000
1#
b101010 ?
b101010 I
#1900000
0#
#1910000
1#
b101011 ?
b101011 I
#1920000
0#
#1930000
1#
b101100 ?
b101100 I
#1940000
0#
#1950000
1#
b101101 ?
b101101 I
#1960000
0#
#1970000
1#
b101110 ?
b101110 I
#1980000
0#
#1990000
1#
b101111 ?
b101111 I
#2000000
0#
#2010000
1#
b110000 ?
b110000 I
#2020000
0#
#2030000
1#
b110001 ?
b110001 I
#2040000
0#
#2050000
1#
b110010 ?
b110010 I
#2060000
0#
#2070000
1#
b110011 ?
b110011 I
#2080000
0#
#2090000
1#
b110100 ?
b110100 I
#2100000
0#
#2110000
1#
b0 ?
0A
b0 I
0K
#2120000
0#
#2130000
1#
b1 ?
b1 I
#2140000
0#
#2150000
1#
b10 ?
b10 I
#2160000
0#
#2170000
1#
b11 ?
b11 I
#2180000
0#
#2190000
1#
b100 ?
b100 I
#2200000
0#
#2210000
1#
b101 ?
b101 I
#2220000
0#
#2230000
1#
b110 ?
b110 I
#2240000
0#
#2250000
1#
b111 ?
b111 I
#2260000
0#
#2270000
1#
b1000 ?
b1000 I
#2280000
0#
#2290000
1#
b1001 ?
b1001 I
#2300000
0#
#2310000
1#
b1010 ?
b1010 I
#2320000
0#
#2330000
1#
b1011 ?
b1011 I
#2340000
0#
#2350000
1#
b1100 ?
b1100 I
#2360000
0#
#2370000
1#
b1101 ?
b1101 I
#2380000
0#
#2390000
1#
b1110 ?
b1110 I
#2400000
0#
#2410000
1#
b1111 ?
b1111 I
#2420000
0#
#2430000
1#
b10000 ?
b10000 I
#2440000
0#
#2450000
1#
b10001 ?
b10001 I
#2460000
0#
#2470000
1#
b10010 ?
b10010 I
#2480000
0#
#2490000
1#
b10011 ?
b10011 I
#2500000
0#
#2510000
1#
b10100 ?
b10100 I
#2520000
0#
#2530000
1#
b10101 ?
b10101 I
#2540000
0#
#2550000
1#
b10110 ?
b10110 I
#2560000
0#
#2570000
1#
b10111 ?
b10111 I
#2580000
0#
#2590000
1#
b11000 ?
b11000 I
#2600000
0#
#2610000
1#
b11001 ?
b11001 I
#2620000
0#
#2630000
1#
b11010 ?
b11010 I
#2640000
0#
#2650000
1#
b11011 ?
b11011 I
#2660000
0#
#2670000
1#
b11100 ?
b11100 I
#2680000
0#
#2690000
1#
b11101 ?
b11101 I
#2700000
0#
#2710000
1#
b11110 ?
b11110 I
#2720000
0#
#2730000
1#
b11111 ?
b11111 I
#2740000
0#
#2750000
1#
b100000 ?
b100000 I
#2760000
0#
#2770000
1#
b100001 ?
b100001 I
#2780000
0#
#2790000
1#
b100010 ?
b100010 I
#2800000
0#
#2810000
1#
b100011 ?
b100011 I
#2820000
0#
#2830000
1#
b100100 ?
b100100 I
#2840000
0#
#2850000
1#
b100101 ?
b100101 I
#2860000
0#
#2870000
1#
b100110 ?
b100110 I
#2880000
0#
#2890000
1#
b100111 ?
b100111 I
#2900000
0#
#2910000
1#
b101000 ?
b101000 I
#2920000
0#
#2930000
1#
b101001 ?
b101001 I
#2940000
0#
#2950000
1#
b101010 ?
b101010 I
#2960000
0#
#2970000
1#
b101011 ?
b101011 I
#2980000
0#
#2990000
1#
b101100 ?
b101100 I
#3000000
0#
#3010000
1#
b101101 ?
b101101 I
#3020000
0#
#3030000
1#
b101110 ?
b101110 I
#3040000
0#
#3050000
1#
b101111 ?
b101111 I
#3060000
0#
#3070000
1#
b110000 ?
b110000 I
#3080000
0#
#3090000
1#
b110001 ?
b110001 I
#3100000
0#
#3110000
1#
b110010 ?
b110010 I
#3120000
0#
#3130000
1#
b110011 ?
b110011 I
#3140000
0#
#3150000
1#
b110100 ?
b110100 I
#3160000
0#
#3170000
1#
b0 ?
1A
b0 I
1K
#3180000
0#
#3190000
1#
b1 ?
b1 I
#3200000
0#
#3210000
1#
b10 ?
b10 I
#3220000
0#
#3230000
1#
b11 ?
b11 I
#3240000
0#
#3250000
1#
b100 ?
b100 I
#3260000
0#
#3270000
1#
b101 ?
b101 I
#3280000
0#
#3290000
1#
b110 ?
b110 I
#3300000
0#
#3310000
1#
b111 ?
b111 I
#3320000
0#
#3330000
1#
b1000 ?
b1000 I
#3340000
0#
#3350000
1#
b1001 ?
b1001 I
#3360000
0#
#3370000
1#
b1010 ?
b1010 I
#3380000
0#
#3390000
1#
b1011 ?
b1011 I
#3400000
0#
#3410000
1#
b1100 ?
b1100 I
#3420000
0#
#3430000
1#
b1101 ?
b1101 I
#3440000
0#
#3450000
1#
b1110 ?
b1110 I
#3460000
0#
#3470000
1#
b1111 ?
b1111 I
#3480000
0#
#3490000
1#
b10000 ?
b10000 I
#3500000
0#
#3510000
1#
b10001 ?
b10001 I
#3520000
0#
#3530000
1#
b10010 ?
b10010 I
#3540000
0#
#3550000
1#
b10011 ?
b10011 I
#3560000
0#
#3570000
1#
b10100 ?
b10100 I
#3580000
0#
#3590000
1#
b10101 ?
b10101 I
#3600000
0#
#3610000
1#
b10110 ?
b10110 I
#3620000
0#
#3630000
1#
b10111 ?
b10111 I
#3640000
0#
#3650000
1#
b11000 ?
b11000 I
#3660000
0#
#3670000
1#
b11001 ?
b11001 I
#3680000
0#
#3690000
1#
b11010 ?
b11010 I
#3700000
0#
#3710000
1#
b11011 ?
b11011 I
#3720000
0#
#3730000
1#
b11100 ?
b11100 I
#3740000
0#
#3750000
1#
b11101 ?
b11101 I
#3760000
0#
#3770000
1#
b11110 ?
b11110 I
#3780000
0#
#3790000
1#
b11111 ?
b11111 I
#3800000
0#
#3810000
1#
b100000 ?
b100000 I
#3820000
0#
#3830000
1#
b100001 ?
b100001 I
#3840000
0#
#3850000
1#
b100010 ?
b100010 I
#3860000
0#
#3870000
1#
b100011 ?
b100011 I
#3880000
0#
#3890000
1#
b100100 ?
b100100 I
#3900000
0#
#3910000
1#
b100101 ?
b100101 I
#3920000
0#
#3930000
1#
b100110 ?
b100110 I
#3940000
0#
#3950000
1#
b100111 ?
b100111 I
#3960000
0#
#3970000
1#
b101000 ?
b101000 I
#3980000
0#
#3990000
1#
b101001 ?
b101001 I
#4000000
0#
#4010000
1#
b101010 ?
b101010 I
#4020000
0#
#4030000
1#
b101011 ?
b101011 I
#4040000
0#
#4050000
1#
b101100 ?
b101100 I
#4060000
0#
#4070000
1#
b101101 ?
b101101 I
#4080000
0#
#4090000
1#
b101110 ?
b101110 I
#4100000
0#
#4110000
1#
b101111 ?
b101111 I
#4120000
0#
#4130000
1#
b110000 ?
b110000 I
#4140000
0#
#4150000
1#
b110001 ?
b110001 I
#4160000
0#
#4170000
1#
b110010 ?
b110010 I
#4180000
0#
#4190000
1#
b110011 ?
b110011 I
#4200000
0#
#4210000
1#
b110100 ?
b110100 I
#4220000
0#
#4230000
1#
b0 ?
0A
b0 I
0K
#4240000
0#
#4250000
1#
b1 ?
b1 I
#4260000
0#
#4270000
1#
b10 ?
b10 I
#4280000
0#
#4290000
1#
b11 ?
b11 I
#4300000
0#
#4310000
1#
b100 ?
b100 I
#4320000
0#
#4330000
1#
b101 ?
b101 I
#4340000
0#
#4350000
1#
b110 ?
b110 I
#4360000
0#
#4370000
1#
b111 ?
b111 I
#4380000
0#
#4390000
1#
b1000 ?
b1000 I
#4400000
0#
#4410000
1#
b1001 ?
b1001 I
#4420000
0#
#4430000
1#
b1010 ?
b1010 I
#4440000
0#
#4450000
1#
b1011 ?
b1011 I
#4460000
0#
#4470000
1#
b1100 ?
b1100 I
#4480000
0#
#4490000
1#
b1101 ?
b1101 I
#4500000
0#
#4510000
1#
b1110 ?
b1110 I
#4520000
0#
#4530000
1#
b1111 ?
b1111 I
#4540000
0#
#4550000
1#
b10000 ?
b10000 I
#4560000
0#
#4570000
1#
b10001 ?
b10001 I
#4580000
0#
#4590000
1#
b10010 ?
b10010 I
#4600000
0#
#4610000
1#
b10011 ?
b10011 I
#4620000
0#
#4630000
1#
b10100 ?
b10100 I
#4640000
0#
#4650000
1#
b10101 ?
b10101 I
#4660000
0#
#4670000
1#
b10110 ?
b10110 I
#4680000
0#
#4690000
1#
b10111 ?
b10111 I
#4700000
0#
#4710000
1#
b11000 ?
b11000 I
#4720000
0#
#4730000
1#
b11001 ?
b11001 I
#4740000
0#
#4750000
1#
b11010 ?
b11010 I
#4760000
0#
#4770000
1#
b11011 ?
b11011 I
#4780000
0#
#4790000
1#
b11100 ?
b11100 I
#4800000
0#
#4810000
1#
b11101 ?
b11101 I
#4820000
0#
#4830000
1#
b11110 ?
b11110 I
#4840000
0#
#4850000
1#
b11111 ?
b11111 I
#4860000
0#
#4870000
1#
b100000 ?
b100000 I
#4880000
0#
#4890000
1#
b100001 ?
b100001 I
#4900000
0#
#4910000
1#
b100010 ?
b100010 I
#4920000
0#
#4930000
1#
b100011 ?
b100011 I
#4940000
0#
#4950000
1#
b100100 ?
b100100 I
#4960000
0#
#4970000
1#
b100101 ?
b100101 I
#4980000
0#
#4990000
1#
b100110 ?
b100110 I
#5000000
0#
#5010000
1#
b100111 ?
b100111 I
#5020000
0#
#5030000
1#
b101000 ?
b101000 I
#5040000
0#
#5050000
1#
b101001 ?
b101001 I
#5060000
0#
#5070000
1#
b101010 ?
b101010 I
#5080000
0#
#5090000
1#
b101011 ?
b101011 I
#5100000
0#
#5110000
1#
b101100 ?
b101100 I
#5120000
0#
#5130000
1#
b101101 ?
b101101 I
#5140000
0#
#5150000
1#
b101110 ?
b101110 I
#5160000
0#
#5170000
1#
b101111 ?
b101111 I
#5180000
0#
#5190000
1#
b110000 ?
b110000 I
#5200000
0#
#5210000
1#
b110001 ?
b110001 I
#5220000
0#
#5230000
1#
b110010 ?
b110010 I
#5240000
0#
#5250000
1#
b110011 ?
b110011 I
#5260000
0#
#5270000
1#
b110100 ?
b110100 I
#5280000
0#
#5290000
1#
b0 ?
1A
b0 I
1K
#5300000
0#
#5310000
1#
b1 ?
b1 I
#5320000
0#
#5330000
1#
b10 ?
b10 I
#5340000
0#
#5350000
1#
b11 ?
b11 I
#5360000
0#
#5370000
1#
b100 ?
b100 I
#5380000
0#
#5390000
1#
b101 ?
b101 I
#5400000
0#
#5410000
1#
b110 ?
b110 I
#5420000
0#
#5430000
1#
b111 ?
b111 I
#5440000
0#
#5450000
1#
b1000 ?
b1000 I
#5460000
0#
#5470000
1#
b1001 ?
b1001 I
#5480000
0#
#5490000
1#
b1010 ?
b1010 I
#5500000
0#
#5510000
1#
b1011 ?
b1011 I
#5520000
0#
#5530000
1#
b1100 ?
b1100 I
#5540000
0#
#5550000
1#
b1101 ?
b1101 I
#5560000
0#
#5570000
1#
b1110 ?
b1110 I
#5580000
0#
#5590000
1#
b1111 ?
b1111 I
#5600000
0#
#5610000
1#
b10000 ?
b10000 I
#5620000
0#
#5630000
1#
b10001 ?
b10001 I
#5640000
0#
#5650000
1#
b10010 ?
b10010 I
#5660000
0#
#5670000
1#
b10011 ?
b10011 I
#5680000
0#
#5690000
1#
b10100 ?
b10100 I
#5700000
0#
#5710000
1#
b10101 ?
b10101 I
#5720000
0#
#5730000
1#
b10110 ?
b10110 I
#5740000
0#
#5750000
1#
b10111 ?
b10111 I
#5760000
0#
#5770000
1#
b11000 ?
b11000 I
#5780000
0#
#5790000
1#
b11001 ?
b11001 I
#5800000
0#
#5810000
1#
b11010 ?
b11010 I
#5820000
0#
#5830000
1#
b11011 ?
b11011 I
#5840000
0#
#5850000
1#
b11100 ?
b11100 I
#5860000
0#
#5870000
1#
b11101 ?
b11101 I
#5880000
0#
#5890000
1#
b11110 ?
b11110 I
#5900000
0#
#5910000
1#
b11111 ?
b11111 I
#5920000
0#
#5930000
1#
b100000 ?
b100000 I
#5940000
0#
#5950000
1#
b100001 ?
b100001 I
#5960000
0#
#5970000
1#
b100010 ?
b100010 I
#5980000
0#
#5990000
1#
b100011 ?
b100011 I
#6000000
0#
#6010000
1#
b100100 ?
b100100 I
#6020000
0#
#6030000
1#
b100101 ?
b100101 I
#6040000
0#
#6050000
1#
b100110 ?
b100110 I
#6060000
0#
#6070000
1#
b100111 ?
b100111 I
#6080000
0#
#6090000
1#
b101000 ?
b101000 I
#6100000
0#
#6110000
1#
b101001 ?
b101001 I
#6120000
0#
#6130000
1#
b101010 ?
b101010 I
#6140000
0#
#6150000
1#
b101011 ?
b101011 I
#6160000
0#
#6170000
1#
b101100 ?
b101100 I
#6180000
0#
#6190000
1#
b101101 ?
b101101 I
#6200000
0#
#6210000
1#
b101110 ?
b101110 I
#6220000
0#
#6230000
1#
b101111 ?
b101111 I
#6240000
0#
#6250000
1#
b110000 ?
b110000 I
#6260000
0#
#6270000
1#
b110001 ?
b110001 I
#6280000
0#
#6290000
1#
b110010 ?
b110010 I
#6300000
0#
#6310000
1#
b110011 ?
b110011 I
#6320000
0#
#6330000
1#
b110100 ?
b110100 I
#6340000
0#
#6350000
1#
b0 ?
0A
b0 I
0K
#6360000
0#
#6370000
1#
b1 ?
b1 I
#6380000
0#
#6390000
1#
b10 ?
b10 I
#6400000
0#
#6410000
1#
b11 ?
b11 I
#6420000
0#
#6430000
1#
b100 ?
b100 I
#6440000
0#
#6450000
1#
b101 ?
b101 I
#6460000
0#
#6470000
1#
b110 ?
b110 I
#6480000
0#
#6490000
1#
b111 ?
b111 I
#6500000
0#
#6510000
1#
b1000 ?
b1000 I
#6520000
0#
#6530000
1#
b1001 ?
b1001 I
#6540000
0#
#6550000
1#
b1010 ?
b1010 I
#6560000
0#
#6570000
1#
b1011 ?
b1011 I
#6580000
0#
#6590000
1#
b1100 ?
b1100 I
#6600000
0#
#6610000
1#
b1101 ?
b1101 I
#6620000
0#
#6630000
1#
b1110 ?
b1110 I
#6640000
0#
#6650000
1#
b1111 ?
b1111 I
#6660000
0#
#6670000
1#
b10000 ?
b10000 I
#6680000
0#
#6690000
1#
b10001 ?
b10001 I
#6700000
0#
#6710000
1#
b10010 ?
b10010 I
#6720000
0#
#6730000
1#
b10011 ?
b10011 I
#6740000
0#
#6750000
1#
b10100 ?
b10100 I
#6760000
0#
#6770000
1#
b10101 ?
b10101 I
#6780000
0#
#6790000
1#
b10110 ?
b10110 I
#6800000
0#
#6810000
1#
b10111 ?
b10111 I
#6820000
0#
#6830000
1#
b11000 ?
b11000 I
#6840000
0#
#6850000
1#
b11001 ?
b11001 I
#6860000
0#
#6870000
1#
b11010 ?
b11010 I
#6880000
0#
#6890000
1#
b11011 ?
b11011 I
#6900000
0#
#6910000
1#
b11100 ?
b11100 I
#6920000
0#
#6930000
1#
b11101 ?
b11101 I
#6940000
0#
#6950000
1#
b11110 ?
b11110 I
#6960000
0#
#6970000
1#
b11111 ?
b11111 I
#6980000
0#
#6990000
1#
b100000 ?
b100000 I
#7000000
0#
#7010000
1#
b100001 ?
b100001 I
#7020000
0#
#7030000
1#
b100010 ?
b100010 I
#7040000
0#
#7050000
1#
b100011 ?
b100011 I
#7060000
0#
#7070000
1#
b100100 ?
b100100 I
#7080000
0#
#7090000
1#
b100101 ?
b100101 I
#7100000
0#
#7110000
1#
b100110 ?
b100110 I
#7120000
0#
#7130000
1#
b100111 ?
b100111 I
#7140000
0#
#7150000
1#
b101000 ?
b101000 I
#7160000
0#
#7170000
1#
b101001 ?
b101001 I
#7180000
0#
#7190000
1#
b101010 ?
b101010 I
#7200000
0#
#7210000
1#
b101011 ?
b101011 I
#7220000
0#
#7230000
1#
b101100 ?
b101100 I
#7240000
0#
#7250000
1#
b101101 ?
b101101 I
#7260000
0#
#7270000
1#
b101110 ?
b101110 I
#7280000
0#
#7290000
1#
b101111 ?
b101111 I
#7300000
0#
#7310000
1#
b110000 ?
b110000 I
#7320000
0#
#7330000
1#
b110001 ?
b110001 I
#7340000
0#
#7350000
1#
b110010 ?
b110010 I
#7360000
0#
#7370000
1#
b110011 ?
b110011 I
#7380000
0#
#7390000
1#
b110100 ?
b110100 I
#7400000
0#
#7410000
1#
b0 ?
1A
b0 I
1K
#7420000
0#
#7430000
1#
b1 ?
b1 I
#7440000
0#
#7450000
1#
b10 ?
b10 I
#7460000
0#
#7470000
1#
b11 ?
b11 I
#7480000
0#
#7490000
1#
b100 ?
b100 I
#7500000
0#
#7510000
1#
b101 ?
b101 I
#7520000
0#
#7530000
1#
b110 ?
b110 I
#7540000
0#
#7550000
1#
b111 ?
b111 I
#7560000
0#
#7570000
1#
b1000 ?
b1000 I
#7580000
0#
#7590000
1#
b1001 ?
b1001 I
#7600000
0#
#7610000
1#
b1010 ?
b1010 I
#7620000
0#
#7630000
1#
b1011 ?
b1011 I
#7640000
0#
#7650000
1#
b1100 ?
b1100 I
#7660000
0#
#7670000
1#
b1101 ?
b1101 I
#7680000
0#
#7690000
1#
b1110 ?
b1110 I
#7700000
0#
#7710000
1#
b1111 ?
b1111 I
#7720000
0#
#7730000
1#
b10000 ?
b10000 I
#7740000
0#
#7750000
1#
b10001 ?
b10001 I
#7760000
0#
#7770000
1#
b10010 ?
b10010 I
#7780000
0#
#7790000
1#
b10011 ?
b10011 I
#7800000
0#
#7810000
1#
b10100 ?
b10100 I
#7820000
0#
#7830000
1#
b10101 ?
b10101 I
#7840000
0#
#7850000
1#
b10110 ?
b10110 I
#7860000
0#
#7870000
1#
b10111 ?
b10111 I
#7880000
0#
#7890000
1#
b11000 ?
b11000 I
#7900000
0#
#7910000
1#
b11001 ?
b11001 I
#7920000
0#
#7930000
1#
b11010 ?
b11010 I
#7940000
0#
#7950000
1#
b11011 ?
b11011 I
#7960000
0#
#7970000
1#
b11100 ?
b11100 I
#7980000
0#
#7990000
1#
b11101 ?
b11101 I
#8000000
0#
#8010000
1#
b11110 ?
b11110 I
#8020000
0#
#8030000
1#
b11111 ?
b11111 I
#8040000
0#
#8050000
1#
b100000 ?
b100000 I
#8060000
0#
#8070000
1#
b100001 ?
b100001 I
#8080000
0#
#8090000
1#
b100010 ?
b100010 I
#8100000
0#
#8110000
1#
b100011 ?
b100011 I
#8120000
0#
#8130000
1#
b100100 ?
b100100 I
#8140000
0#
#8150000
1#
b100101 ?
b100101 I
#8160000
0#
#8170000
1#
b100110 ?
b100110 I
#8180000
0#
#8190000
1#
b100111 ?
b100111 I
#8200000
0#
#8210000
1#
b101000 ?
b101000 I
#8220000
0#
#8230000
1#
b101001 ?
b101001 I
#8240000
0#
#8250000
1#
b101010 ?
b101010 I
#8260000
0#
#8270000
1#
b101011 ?
b101011 I
#8280000
0#
#8290000
1#
b101100 ?
b101100 I
#8300000
0#
#8310000
1#
b101101 ?
b101101 I
#8320000
0#
#8330000
1#
b101110 ?
b101110 I
#8340000
0#
#8350000
1#
b101111 ?
b101111 I
#8360000
0#
#8370000
1#
b110000 ?
b110000 I
#8380000
0#
#8390000
1#
b110001 ?
b110001 I
#8400000
0#
#8410000
1#
b110010 ?
b110010 I
#8420000
0#
#8430000
1#
b110011 ?
b110011 I
#8440000
0#
#8450000
1#
b110100 ?
b110100 I
#8460000
0#
#8470000
1#
b0 ?
0A
b0 I
0K
#8480000
0#
#8490000
1#
b1 ?
b1 I
#8500000
0#
#8510000
1#
b10 ?
b10 I
#8520000
0#
#8530000
1#
b11 ?
b11 I
#8540000
0#
#8550000
1#
b100 ?
b100 I
#8560000
0#
#8570000
1#
b101 ?
b101 I
#8580000
0#
#8590000
1#
b110 ?
b110 I
#8600000
0#
#8610000
1#
b111 ?
b111 I
#8620000
0#
#8630000
1#
b1000 ?
b1000 I
#8640000
0#
#8650000
1#
b1001 ?
b1001 I
#8660000
0#
#8670000
1#
b1010 ?
b1010 I
#8680000
0#
#8690000
1#
b1011 ?
b1011 I
#8700000
0#
#8710000
1#
b1100 ?
b1100 I
#8720000
0#
#8730000
1#
b1101 ?
b1101 I
#8740000
0#
#8750000
1#
b1110 ?
b1110 I
#8760000
0#
#8770000
1#
b1111 ?
b1111 I
#8780000
0#
#8790000
1#
b10000 ?
b10000 I
#8800000
0#
#8810000
1#
b10001 ?
b10001 I
#8820000
0#
#8830000
1#
b10010 ?
b10010 I
#8840000
0#
#8850000
1#
b10011 ?
b10011 I
#8860000
0#
#8870000
1#
b10100 ?
b10100 I
#8880000
0#
#8890000
1#
b10101 ?
b10101 I
#8900000
0#
#8910000
1#
b10110 ?
b10110 I
#8920000
0#
#8930000
1#
b10111 ?
b10111 I
#8940000
0#
#8950000
1#
b11000 ?
b11000 I
#8960000
0#
#8970000
1#
b11001 ?
b11001 I
#8980000
0#
#8990000
1#
b11010 ?
b11010 I
#9000000
0#
#9010000
1#
b11011 ?
b11011 I
#9020000
0#
#9030000
1#
b11100 ?
b11100 I
#9040000
0#
#9050000
1#
b11101 ?
b11101 I
#9060000
0#
#9070000
1#
b11110 ?
b11110 I
#9080000
0#
#9090000
1#
b11111 ?
b11111 I
#9100000
0#
#9110000
1#
b100000 ?
b100000 I
#9120000
0#
#9130000
1#
b100001 ?
b100001 I
#9140000
0#
#9150000
1#
b100010 ?
b100010 I
#9160000
0#
#9170000
1#
b100011 ?
b100011 I
#9180000
0#
#9190000
1#
b100100 ?
b100100 I
#9200000
0#
#9210000
1#
b100101 ?
b100101 I
#9220000
0#
#9230000
1#
b100110 ?
b100110 I
#9240000
0#
#9250000
1#
b100111 ?
b100111 I
#9260000
0#
#9270000
1#
b101000 ?
b101000 I
#9280000
0#
#9290000
1#
b101001 ?
b101001 I
#9300000
0#
#9310000
1#
b101010 ?
b101010 I
#9320000
0#
#9330000
1#
b101011 ?
b101011 I
#9340000
0#
#9350000
1#
b101100 ?
b101100 I
#9360000
0#
#9370000
1#
b101101 ?
b101101 I
#9380000
0#
#9390000
1#
b101110 ?
b101110 I
#9400000
0#
#9410000
1#
b101111 ?
b101111 I
#9420000
0#
#9430000
1#
b110000 ?
b110000 I
#9440000
0#
#9450000
1#
b110001 ?
b110001 I
#9460000
0#
#9470000
1#
b110010 ?
b110010 I
#9480000
0#
#9490000
1#
b110011 ?
b110011 I
#9500000
0#
#9510000
1#
b110100 ?
b110100 I
#9520000
0#
