SPI/dump.vcd
$date
	Thu Nov  2 07:04:25 2023
$end
$version
	QuestaSim Version 2021.2_1
$end
$timescale
	1ns
$end

$scope module tb $end

$scope module dut $end
$var wire 1 ! clk $end
$var wire 1 " newd $end
$var wire 1 # rst $end
$var wire 1 $ din [11] $end
$var wire 1 % din [10] $end
$var wire 1 & din [9] $end
$var wire 1 ' din [8] $end
$var wire 1 ( din [7] $end
$var wire 1 ) din [6] $end
$var wire 1 * din [5] $end
$var wire 1 + din [4] $end
$var wire 1 , din [3] $end
$var wire 1 - din [2] $end
$var wire 1 . din [1] $end
$var wire 1 / din [0] $end
$var reg 1 0 sclk $end
$var reg 1 1 cs $end
$var reg 1 2 mosi $end
$var reg 2 3 state [1:0] $end
$var integer 32 4 countc $end
$var integer 32 5 count $end
$var reg 12 6 temp [11:0] $end
$upscope $end
$upscope $end

$scope begin spi_tb_sv_unit $end
$upscope $end

$scope begin std $end
$upscope $end
$enddefinitions $end
#0
$dumpvars
x0
x1
x2
b0 3
bx 6
b0 4
b0 5
0/
0.
0-
0,
0+
0*
0)
0(
0'
0&
0%
0$
1#
0"
0!
$end
#10
1!
00
#20
0!
#30
1!
#40
0!
#50
1!
#60
0!
#70
1!
#80
0!
#90
1!
#100
0!
#110
1!
#120
0!
#130
1!
#140
0!
#150
1!
#160
0!
#170
1!
#180
0!
#190
1!
0#
#200
0!
#210
1!
b1 4
#220
0!
#230
1!
b10 4
#240
0!
#250
1!
b11 4
#260
0!
#270
1!
b100 4
#280
0!
#290
1!
b101 4
#300
0!
#310
1!
b110 4
#320
0!
#330
1!
b111 4
#340
0!
#350
1!
b1000 4
#360
0!
#370
1!
b1001 4
#380
0!
#390
1!
b1010 4
#400
0!
#410
1!
b1011 4
#420
0!
#430
1!
b1100 4
#440
0!
#450
1!
b1101 4
#460
0!
#470
1!
b1110 4
#480
0!
#490
1!
b1111 4
#500
0!
#510
1!
b10000 4
#520
0!
#530
1!
b10001 4
#540
0!
#550
1!
b10010 4
#560
0!
#570
1!
b10011 4
#580
0!
#590
1!
b10100 4
#600
0!
#610
1!
b10101 4
#620
0!
#630
1!
b10110 4
#640
0!
#650
1!
b10111 4
#660
0!
#670
1!
b11000 4
#680
0!
#690
1!
b11001 4
#700
0!
#710
1!
b11010 4
#720
0!
#730
1!
b11011 4
#740
0!
#750
1!
b11100 4
#760
0!
#770
1!
b11101 4
#780
0!
#790
1!
b11110 4
#800
0!
#810
1!
b11111 4
#820
0!
#830
1!
b100000 4
#840
0!
#850
1!
b100001 4
#860
0!
#870
1!
b100010 4
#880
0!
#890
1!
b100011 4
#900
0!
#910
1!
b100100 4
#920
0!
#930
1!
b100101 4
#940
0!
#950
1!
b100110 4
#960
0!
#970
1!
b100111 4
#980
0!
#990
1!
b101000 4
#1000
0!
#1010
1!
b101001 4
#1020
0!
#1030
1!
b101010 4
#1040
0!
#1050
1!
b101011 4
#1060
0!
#1070
1!
b101100 4
#1080
0!
#1090
1!
b101101 4
#1100
0!
#1110
1!
b101110 4
#1120
0!
#1130
1!
b101111 4
#1140
0!
#1150
1!
b110000 4
#1160
0!
#1170
1!
b110001 4
#1180
0!
#1190
1!
b110010 4
#1200
0!
#1210
1!
b0 4
10
b0 6
1"
1/
1-
1+
1*
1)
1%
1$
#1220
0!
#1230
1!
b1 4
#1240
0!
#1250
1!
b10 4
#1260
0!
#1270
1!
b11 4
#1280
0!
#1290
1!
b100 4
#1300
0!
#1310
1!
b101 4
#1320
0!
#1330
1!
b110 4
#1340
0!
#1350
1!
b111 4
#1360
0!
#1370
1!
b1000 4
#1380
0!
#1390
1!
b1001 4
#1400
0!
#1410
1!
b1010 4
#1420
0!
#1430
1!
b1011 4
#1440
0!
#1450
1!
b1100 4
#1460
0!
#1470
1!
b1101 4
#1480
0!
#1490
1!
b1110 4
#1500
0!
#1510
1!
b1111 4
#1520
0!
#1530
1!
b10000 4
#1540
0!
#1550
1!
b10001 4
#1560
0!
#1570
1!
b10010 4
#1580
0!
#1590
1!
b10011 4
#1600
0!
#1610
1!
b10100 4
#1620
0!
#1630
1!
b10101 4
#1640
0!
#1650
1!
b10110 4
#1660
0!
#1670
1!
b10111 4
#1680
0!
#1690
1!
b11000 4
#1700
0!
#1710
1!
b11001 4
#1720
0!
#1730
1!
b11010 4
#1740
0!
#1750
1!
b11011 4
#1760
0!
#1770
1!
b11100 4
#1780
0!
#1790
1!
b11101 4
#1800
0!
#1810
1!
b11110 4
#1820
0!
#1830
1!
b11111 4
#1840
0!
#1850
1!
b100000 4
#1860
0!
#1870
1!
b100001 4
#1880
0!
#1890
1!
b100010 4
#1900
0!
#1910
1!
b100011 4
#1920
0!
#1930
1!
b100100 4
#1940
0!
#1950
1!
b100101 4
#1960
0!
#1970
1!
b100110 4
#1980
0!
#1990
1!
b100111 4
#2000
0!
#2010
1!
b101000 4
#2020
0!
#2030
1!
b101001 4
#2040
0!
#2050
1!
b101010 4
#2060
0!
#2070
1!
b101011 4
#2080
0!
#2090
1!
b101100 4
#2100
0!
#2110
1!
b101101 4
#2120
0!
#2130
1!
b101110 4
#2140
0!
#2150
1!
b101111 4
#2160
0!
#2170
1!
b110000 4
#2180
0!
#2190
1!
b110001 4
#2200
0!
#2210
1!
b110010 4
#2220
0!
#2230
1!
b0 4
00
#2240
0!
#2250
1!
b1 4
#2260
0!
#2270
1!
b10 4
#2280
0!
#2290
1!
b11 4
#2300
0!
#2310
1!
b100 4
#2320
0!
#2330
1!
b101 4
#2340
0!
#2350
1!
b110 4
#2360
0!
#2370
1!
b111 4
#2380
0!
#2390
1!
b1000 4
#2400
0!
#2410
1!
b1001 4
#2420
0!
#2430
1!
b1010 4
#2440
0!
#2450
1!
b1011 4
#2460
0!
#2470
1!
b1100 4
#2480
0!
#2490
1!
b1101 4
#2500
0!
#2510
1!
b1110 4
#2520
0!
#2530
1!
b1111 4
#2540
0!
#2550
1!
b10000 4
#2560
0!
#2570
1!
b10001 4
#2580
0!
#2590
1!
b10010 4
#2600
0!
#2610
1!
b10011 4
#2620
0!
#2630
1!
b10100 4
#2640
0!
#2650
1!
b10101 4
#2660
0!
#2670
1!
b10110 4
#2680
0!
#2690
1!
b10111 4
#2700
0!
#2710
1!
b11000 4
#2720
0!
#2730
1!
b11001 4
#2740
0!
#2750
1!
b11010 4
#2760
0!
#2770
1!
b11011 4
#2780
0!
#2790
1!
b11100 4
#2800
0!
#2810
1!
b11101 4
#2820
0!
#2830
1!
b11110 4
#2840
0!
#2850
1!
b11111 4
#2860
0!
#2870
1!
b100000 4
#2880
0!
#2890
1!
b100001 4
#2900
0!
#2910
1!
b100010 4
#2920
0!
#2930
1!
b100011 4
#2940
0!
#2950
1!
b100100 4
#2960
0!
#2970
1!
b100101 4
#2980
0!
#2990
1!
b100110 4
#3000
0!
#3010
1!
b100111 4
#3020
0!
#3030
1!
b101000 4
#3040
0!
#3050
1!
b101001 4
#3060
0!
#3070
1!
b101010 4
#3080
0!
#3090
1!
b101011 4
#3100
0!
#3110
1!
b101100 4
#3120
0!
#3130
1!
b101101 4
#3140
0!
#3150
1!
b101110 4
#3160
0!
#3170
1!
b101111 4
#3180
0!
#3190
1!
b110000 4
#3200
0!
#3210
1!
b110001 4
#3220
0!
#3230
1!
b110010 4
#3240
0!
#3250
1!
b0 4
10
b10 3
b110001110101 6
01
0"
#3260
0!
#3270
1!
b1 4
#3280
0!
#3290
1!
b10 4
#3300
0!
#3310
1!
b11 4
#3320
0!
#3330
1!
b100 4
#3340
0!
#3350
1!
b101 4
#3360
0!
#3370
1!
b110 4
#3380
0!
#3390
1!
b111 4
#3400
0!
#3410
1!
b1000 4
#3420
0!
#3430
1!
b1001 4
#3440
0!
#3450
1!
b1010 4
#3460
0!
#3470
1!
b1011 4
#3480
0!
#3490
1!
b1100 4
#3500
0!
#3510
1!
b1101 4
#3520
0!
#3530
1!
b1110 4
#3540
0!
#3550
1!
b1111 4
#3560
0!
#3570
1!
b10000 4
#3580
0!
#3590
1!
b10001 4
#3600
0!
#3610
1!
b10010 4
#3620
0!
#3630
1!
b10011 4
#3640
0!
#3650
1!
b10100 4
#3660
0!
#3670
1!
b10101 4
#3680
0!
#3690
1!
b10110 4
#3700
0!
#3710
1!
b10111 4
#3720
0!
#3730
1!
b11000 4
#3740
0!
#3750
1!
b11001 4
#3760
0!
#3770
1!
b11010 4
#3780
0!
#3790
1!
b11011 4
#3800
0!
#3810
1!
b11100 4
#3820
0!
#3830
1!
b11101 4
#3840
0!
#3850
1!
b11110 4
#3860
0!
#3870
1!
b11111 4
#3880
0!
#3890
1!
b100000 4
#3900
0!
#3910
1!
b100001 4
#3920
0!
#3930
1!
b100010 4
#3940
0!
#3950
1!
b100011 4
#3960
0!
#3970
1!
b100100 4
#3980
0!
#3990
1!
b100101 4
#4000
0!
#4010
1!
b100110 4
#4020
0!
#4030
1!
b100111 4
#4040
0!
#4050
1!
b101000 4
#4060
0!
#4070
1!
b101001 4
#4080
0!
#4090
1!
b101010 4
#4100
0!
#4110
1!
b101011 4
#4120
0!
#4130
1!
b101100 4
#4140
0!
#4150
1!
b101101 4
#4160
0!
#4170
1!
b101110 4
#4180
0!
#4190
1!
b101111 4
#4200
0!
#4210
1!
b110000 4
#4220
0!
#4230
1!
b110001 4
#4240
0!
#4250
1!
b110010 4
#4260
0!
#4270
1!
b0 4
00
#4280
0!
#4290
1!
b1 4
#4300
0!
#4310
1!
b10 4
#4320
0!
#4330
1!
b11 4
#4340
0!
#4350
1!
b100 4
#4360
0!
#4370
1!
b101 4
#4380
0!
#4390
1!
b110 4
#4400
0!
#4410
1!
b111 4
#4420
0!
#4430
1!
b1000 4
#4440
0!
#4450
1!
b1001 4
#4460
0!
#4470
1!
b1010 4
#4480
0!
#4490
1!
b1011 4
#4500
0!
#4510
1!
b1100 4
#4520
0!
#4530
1!
b1101 4
#4540
0!
#4550
1!
b1110 4
#4560
0!
#4570
1!
b1111 4
#4580
0!
#4590
1!
b10000 4
#4600
0!
#4610
1!
b10001 4
#4620
0!
#4630
1!
b10010 4
#4640
0!
#4650
1!
b10011 4
#4660
0!
#4670
1!
b10100 4
#4680
0!
#4690
1!
b10101 4
#4700
0!
#4710
1!
b10110 4
#4720
0!
#4730
1!
b10111 4
#4740
0!
#4750
1!
b11000 4
#4760
0!
#4770
1!
b11001 4
#4780
0!
#4790
1!
b11010 4
#4800
0!
#4810
1!
b11011 4
#4820
0!
#4830
1!
b11100 4
#4840
0!
#4850
1!
b11101 4
#4860
0!
#4870
1!
b11110 4
#4880
0!
#4890
1!
b11111 4
#4900
0!
#4910
1!
b100000 4
#4920
0!
#4930
1!
b100001 4
#4940
0!
#4950
1!
b100010 4
#4960
0!
#4970
1!
b100011 4
#4980
0!
#4990
1!
b100100 4
#5000
0!
#5010
1!
b100101 4
#5020
0!
#5030
1!
b100110 4
#5040
0!
#5050
1!
b100111 4
#5060
0!
#5070
1!
b101000 4
#5080
0!
#5090
1!
b101001 4
#5100
0!
#5110
1!
b101010 4
#5120
0!
#5130
1!
b101011 4
#5140
0!
#5150
1!
b101100 4
#5160
0!
#5170
1!
b101101 4
#5180
0!
#5190
1!
b101110 4
#5200
0!
#5210
1!
b101111 4
#5220
0!
#5230
1!
b110000 4
#5240
0!
#5250
1!
b110001 4
#5260
0!
#5270
1!
b110010 4
#5280
0!
#5290
1!
b0 4
10
12
b1 5
#5300
0!
#5310
1!
b1 4
#5320
0!
#5330
1!
b10 4
#5340
0!
#5350
1!
b11 4
#5360
0!
#5370
1!
b100 4
#5380
0!
#5390
1!
b101 4
#5400
0!
#5410
1!
b110 4
#5420
0!
#5430
1!
b111 4
#5440
0!
#5450
1!
b1000 4
#5460
0!
#5470
1!
b1001 4
#5480
0!
#5490
1!
b1010 4
#5500
0!
#5510
1!
b1011 4
#5520
0!
#5530
1!
b1100 4
#5540
0!
#5550
1!
b1101 4
#5560
0!
#5570
1!
b1110 4
#5580
0!
#5590
1!
b1111 4
#5600
0!
#5610
1!
b10000 4
#5620
0!
#5630
1!
b10001 4
#5640
0!
#5650
1!
b10010 4
#5660
0!
#5670
1!
b10011 4
#5680
0!
#5690
1!
b10100 4
#5700
0!
#5710
1!
b10101 4
#5720
0!
#5730
1!
b10110 4
#5740
0!
#5750
1!
b10111 4
#5760
0!
#5770
1!
b11000 4
#5780
0!
#5790
1!
b11001 4
#5800
0!
#5810
1!
b11010 4
#5820
0!
#5830
1!
b11011 4
#5840
0!
#5850
1!
b11100 4
#5860
0!
#5870
1!
b11101 4
#5880
0!
#5890
1!
b11110 4
#5900
0!
#5910
1!
b11111 4
#5920
0!
#5930
1!
b100000 4
#5940
0!
#5950
1!
b100001 4
#5960
0!
#5970
1!
b100010 4
#5980
0!
#5990
1!
b100011 4
#6000
0!
#6010
1!
b100100 4
#6020
0!
#6030
1!
b100101 4
#6040
0!
#6050
1!
b100110 4
#6060
0!
#6070
1!
b100111 4
#6080
0!
#6090
1!
b101000 4
#6100
0!
#6110
1!
b101001 4
#6120
0!
#6130
1!
b101010 4
#6140
0!
#6150
1!
b101011 4
#6160
0!
#6170
1!
b101100 4
#6180
0!
#6190
1!
b101101 4
#6200
0!
#6210
1!
b101110 4
#6220
0!
#6230
1!
b101111 4
#6240
0!
#6250
1!
b110000 4
#6260
0!
#6270
1!
b110001 4
#6280
0!
#6290
1!
b110010 4
#6300
0!
#6310
1!
b0 4
00
#6320
0!
#6330
1!
b1 4
#6340
0!
#6350
1!
b10 4
#6360
0!
#6370
1!
b11 4
#6380
0!
#6390
1!
b100 4
#6400
0!
#6410
1!
b101 4
#6420
0!
#6430
1!
b110 4
#6440
0!
#6450
1!
b111 4
#6460
0!
#6470
1!
b1000 4
#6480
0!
#6490
1!
b1001 4
#6500
0!
#6510
1!
b1010 4
#6520
0!
#6530
1!
b1011 4
#6540
0!
#6550
1!
b1100 4
#6560
0!
#6570
1!
b1101 4
#6580
0!
#6590
1!
b1110 4
#6600
0!
#6610
1!
b1111 4
#6620
0!
#6630
1!
b10000 4
#6640
0!
#6650
1!
b10001 4
#6660
0!
#6670
1!
b10010 4
#6680
0!
#6690
1!
b10011 4
#6700
0!
#6710
1!
b10100 4
#6720
0!
#6730
1!
b10101 4
#6740
0!
#6750
1!
b10110 4
#6760
0!
#6770
1!
b10111 4
#6780
0!
#6790
1!
b11000 4
#6800
0!
#6810
1!
b11001 4
#6820
0!
#6830
1!
b11010 4
#6840
0!
#6850
1!
b11011 4
#6860
0!
#6870
1!
b11100 4
#6880
0!
#6890
1!
b11101 4
#6900
0!
#6910
1!
b11110 4
#6920
0!
#6930
1!
b11111 4
#6940
0!
#6950
1!
b100000 4
#6960
0!
#6970
1!
b100001 4
#6980
0!
#6990
1!
b100010 4
#7000
0!
#7010
1!
b100011 4
#7020
0!
#7030
1!
b100100 4
#7040
0!
#7050
1!
b100101 4
#7060
0!
#7070
1!
b100110 4
#7080
0!
#7090
1!
b100111 4
#7100
0!
#7110
1!
b101000 4
#7120
0!
#7130
1!
b101001 4
#7140
0!
#7150
1!
b101010 4
#7160
0!
#7170
1!
b101011 4
#7180
0!
#7190
1!
b101100 4
#7200
0!
#7210
1!
b101101 4
#7220
0!
#7230
1!
b101110 4
#7240
0!
#7250
1!
b101111 4
#7260
0!
#7270
1!
b110000 4
#7280
0!
#7290
1!
b110001 4
#7300
0!
#7310
1!
b110010 4
#7320
0!
#7330
1!
b0 4
10
02
b10 5
#7340
0!
#7350
1!
b1 4
#7360
0!
#7370
1!
b10 4
#7380
0!
#7390
1!
b11 4
#7400
0!
#7410
1!
b100 4
#7420
0!
#7430
1!
b101 4
#7440
0!
#7450
1!
b110 4
#7460
0!
#7470
1!
b111 4
#7480
0!
#7490
1!
b1000 4
#7500
0!
#7510
1!
b1001 4
#7520
0!
#7530
1!
b1010 4
#7540
0!
#7550
1!
b1011 4
#7560
0!
#7570
1!
b1100 4
#7580
0!
#7590
1!
b1101 4
#7600
0!
#7610
1!
b1110 4
#7620
0!
#7630
1!
b1111 4
#7640
0!
#7650
1!
b10000 4
#7660
0!
#7670
1!
b10001 4
#7680
0!
#7690
1!
b10010 4
#7700
0!
#7710
1!
b10011 4
#7720
0!
#7730
1!
b10100 4
#7740
0!
#7750
1!
b10101 4
#7760
0!
#7770
1!
b10110 4
#7780
0!
#7790
1!
b10111 4
#7800
0!
#7810
1!
b11000 4
#7820
0!
#7830
1!
b11001 4
#7840
0!
#7850
1!
b11010 4
#7860
0!
#7870
1!
b11011 4
#7880
0!
#7890
1!
b11100 4
#7900
0!
#7910
1!
b11101 4
#7920
0!
#7930
1!
b11110 4
#7940
0!
#7950
1!
b11111 4
#7960
0!
#7970
1!
b100000 4
#7980
0!
#7990
1!
b100001 4
#8000
0!
#8010
1!
b100010 4
#8020
0!
#8030
1!
b100011 4
#8040
0!
#8050
1!
b100100 4
#8060
0!
#8070
1!
b100101 4
#8080
0!
#8090
1!
b100110 4
#8100
0!
#8110
1!
b100111 4
#8120
0!
#8130
1!
b101000 4
#8140
0!
#8150
1!
b101001 4
#8160
0!
#8170
1!
b101010 4
#8180
0!
#8190
1!
b101011 4
#8200
0!
#8210
1!
b101100 4
#8220
0!
#8230
1!
b101101 4
#8240
0!
#8250
1!
b101110 4
#8260
0!
#8270
1!
b101111 4
#8280
0!
#8290
1!
b110000 4
#8300
0!
#8310
1!
b110001 4
#8320
0!
#8330
1!
b110010 4
#8340
0!
#8350
1!
b0 4
00
#8360
0!
#8370
1!
b1 4
#8380
0!
#8390
1!
b10 4
#8400
0!
#8410
1!
b11 4
#8420
0!
#8430
1!
b100 4
#8440
0!
#8450
1!
b101 4
#8460
0!
#8470
1!
b110 4
#8480
0!
#8490
1!
b111 4
#8500
0!
#8510
1!
b1000 4
#8520
0!
#8530
1!
b1001 4
#8540
0!
#8550
1!
b1010 4
#8560
0!
#8570
1!
b1011 4
#8580
0!
#8590
1!
b1100 4
#8600
0!
#8610
1!
b1101 4
#8620
0!
#8630
1!
b1110 4
#8640
0!
#8650
1!
b1111 4
#8660
0!
#8670
1!
b10000 4
#8680
0!
#8690
1!
b10001 4
#8700
0!
#8710
1!
b10010 4
#8720
0!
#8730
1!
b10011 4
#8740
0!
#8750
1!
b10100 4
#8760
0!
#8770
1!
b10101 4
#8780
0!
#8790
1!
b10110 4
#8800
0!
#8810
1!
b10111 4
#8820
0!
#8830
1!
b11000 4
#8840
0!
#8850
1!
b11001 4
#8860
0!
#8870
1!
b11010 4
#8880
0!
#8890
1!
b11011 4
#8900
0!
#8910
1!
b11100 4
#8920
0!
#8930
1!
b11101 4
#8940
0!
#8950
1!
b11110 4
#8960
0!
#8970
1!
b11111 4
#8980
0!
#8990
1!
b100000 4
#9000
0!
#9010
1!
b100001 4
#9020
0!
#9030
1!
b100010 4
#9040
0!
#9050
1!
b100011 4
#9060
0!
#9070
1!
b100100 4
#9080
0!
#9090
1!
b100101 4
#9100
0!
#9110
1!
b100110 4
#9120
0!
#9130
1!
b100111 4
#9140
0!
#9150
1!
b101000 4
#9160
0!
#9170
1!
b101001 4
#9180
0!
#9190
1!
b101010 4
#9200
0!
#9210
1!
b101011 4
#9220
0!
#9230
1!
b101100 4
#9240
0!
#9250
1!
b101101 4
#9260
0!
#9270
1!
b101110 4
#9280
0!
#9290
1!
b101111 4
#9300
0!
#9310
1!
b110000 4
#9320
0!
#9330
1!
b110001 4
#9340
0!
#9350
1!
b110010 4
#9360
0!
#9370
1!
b0 4
10
12
b11 5
#9380
0!
#9390
1!
b1 4
#9400
0!
#9410
1!
b10 4
#9420
0!
#9430
1!
b11 4
#9440
0!
#9450
1!
b100 4
#9460
0!
#9470
1!
b101 4
#9480
0!
#9490
1!
b110 4
#9500
0!
#9510
1!
b111 4
#9520
0!
#9530
1!
b1000 4
#9540
0!
#9550
1!
b1001 4
#9560
0!
#9570
1!
b1010 4
#9580
0!
#9590
1!
b1011 4
#9600
0!
#9610
1!
b1100 4
#9620
0!
#9630
1!
b1101 4
#9640
0!
#9650
1!
b1110 4
#9660
0!
#9670
1!
b1111 4
#9680
0!
#9690
1!
b10000 4
#9700
0!
#9710
1!
b10001 4
#9720
0!
#9730
1!
b10010 4
#9740
0!
#9750
1!
b10011 4
#9760
0!
#9770
1!
b10100 4
#9780
0!
#9790
1!
b10101 4
#9800
0!
#9810
1!
b10110 4
#9820
0!
#9830
1!
b10111 4
#9840
0!
#9850
1!
b11000 4
#9860
0!
#9870
1!
b11001 4
#9880
0!
#9890
1!
b11010 4
#9900
0!
#9910
1!
b11011 4
#9920
0!
#9930
1!
b11100 4
#9940
0!
#9950
1!
b11101 4
#9960
0!
#9970
1!
b11110 4
#9980
0!
#9990
1!
b11111 4
#10000
0!
#10010
1!
b100000 4
#10020
0!
#10030
1!
b100001 4
#10040
0!
#10050
1!
b100010 4
#10060
0!
#10070
1!
b100011 4
#10080
0!
#10090
1!
b100100 4
#10100
0!
#10110
1!
b100101 4
#10120
0!
#10130
1!
b100110 4
#10140
0!
#10150
1!
b100111 4
#10160
0!
#10170
1!
b101000 4
#10180
0!
#10190
1!
b101001 4
#10200
0!
#10210
1!
b101010 4
#10220
0!
#10230
1!
b101011 4
#10240
0!
#10250
1!
b101100 4
#10260
0!
#10270
1!
b101101 4
#10280
0!
#10290
1!
b101110 4
#10300
0!
#10310
1!
b101111 4
#10320
0!
#10330
1!
b110000 4
#10340
0!
#10350
1!
b110001 4
#10360
0!
#10370
1!
b110010 4
#10380
0!
#10390
1!
b0 4
00
#10400
0!
#10410
1!
b1 4
#10420
0!
#10430
1!
b10 4
#10440
0!
#10450
1!
b11 4
#10460
0!
#10470
1!
b100 4
#10480
0!
#10490
1!
b101 4
#10500
0!
#10510
1!
b110 4
#10520
0!
#10530
1!
b111 4
#10540
0!
#10550
1!
b1000 4
#10560
0!
#10570
1!
b1001 4
#10580
0!
#10590
1!
b1010 4
#10600
0!
#10610
1!
b1011 4
#10620
0!
#10630
1!
b1100 4
#10640
0!
#10650
1!
b1101 4
#10660
0!
#10670
1!
b1110 4
#10680
0!
#10690
1!
b1111 4
#10700
0!
#10710
1!
b10000 4
#10720
0!
#10730
1!
b10001 4
#10740
0!
#10750
1!
b10010 4
#10760
0!
#10770
1!
b10011 4
#10780
0!
#10790
1!
b10100 4
#10800
0!
#10810
1!
b10101 4
#10820
0!
#10830
1!
b10110 4
#10840
0!
#10850
1!
b10111 4
#10860
0!
#10870
1!
b11000 4
#10880
0!
#10890
1!
b11001 4
#10900
0!
#10910
1!
b11010 4
#10920
0!
#10930
1!
b11011 4
#10940
0!
#10950
1!
b11100 4
#10960
0!
#10970
1!
b11101 4
#10980
0!
#10990
1!
b11110 4
#11000
0!
#11010
1!
b11111 4
#11020
0!
#11030
1!
b100000 4
#11040
0!
#11050
1!
b100001 4
#11060
0!
#11070
1!
b100010 4
#11080
0!
#11090
1!
b100011 4
#11100
0!
#11110
1!
b100100 4
#11120
0!
#11130
1!
b100101 4
#11140
0!
#11150
1!
b100110 4
#11160
0!
#11170
1!
b100111 4
#11180
0!
#11190
1!
b101000 4
#11200
0!
#11210
1!
b101001 4
#11220
0!
#11230
1!
b101010 4
#11240
0!
#11250
1!
b101011 4
#11260
0!
#11270
1!
b101100 4
#11280
0!
#11290
1!
b101101 4
#11300
0!
#11310
1!
b101110 4
#11320
0!
#11330
1!
b101111 4
#11340
0!
#11350
1!
b110000 4
#11360
0!
#11370
1!
b110001 4
#11380
0!
#11390
1!
b110010 4
#11400
0!
#11410
1!
b0 4
10
02
b100 5
#11420
0!
#11430
1!
b1 4
#11440
0!
#11450
1!
b10 4
#11460
0!
#11470
1!
b11 4
#11480
0!
#11490
1!
b100 4
#11500
0!
#11510
1!
b101 4
#11520
0!
#11530
1!
b110 4
#11540
0!
#11550
1!
b111 4
#11560
0!
#11570
1!
b1000 4
#11580
0!
#11590
1!
b1001 4
#11600
0!
#11610
1!
b1010 4
#11620
0!
#11630
1!
b1011 4
#11640
0!
#11650
1!
b1100 4
#11660
0!
#11670
1!
b1101 4
#11680
0!
#11690
1!
b1110 4
#11700
0!
#11710
1!
b1111 4
#11720
0!
#11730
1!
b10000 4
#11740
0!
#11750
1!
b10001 4
#11760
0!
#11770
1!
b10010 4
#11780
0!
#11790
1!
b10011 4
#11800
0!
#11810
1!
b10100 4
#11820
0!
#11830
1!
b10101 4
#11840
0!
#11850
1!
b10110 4
#11860
0!
#11870
1!
b10111 4
#11880
0!
#11890
1!
b11000 4
#11900
0!
#11910
1!
b11001 4
#11920
0!
#11930
1!
b11010 4
#11940
0!
#11950
1!
b11011 4
#11960
0!
#11970
1!
b11100 4
#11980
0!
#11990
1!
b11101 4
#12000
0!
#12010
1!
b11110 4
#12020
0!
#12030
1!
b11111 4
#12040
0!
#12050
1!
b100000 4
#12060
0!
#12070
1!
b100001 4
#12080
0!
#12090
1!
b100010 4
#12100
0!
#12110
1!
b100011 4
#12120
0!
#12130
1!
b100100 4
#12140
0!
#12150
1!
b100101 4
#12160
0!
#12170
1!
b100110 4
#12180
0!
#12190
1!
b100111 4
#12200
0!
#12210
1!
b101000 4
#12220
0!
#12230
1!
b101001 4
#12240
0!
#12250
1!
b101010 4
#12260
0!
#12270
1!
b101011 4
#12280
0!
#12290
1!
b101100 4
#12300
0!
#12310
1!
b101101 4
#12320
0!
#12330
1!
b101110 4
#12340
0!
#12350
1!
b101111 4
#12360
0!
#12370
1!
b110000 4
#12380
0!
#12390
1!
b110001 4
#12400
0!
#12410
1!
b110010 4
#12420
0!
#12430
1!
b0 4
00
#12440
0!
#12450
1!
b1 4
#12460
0!
#12470
1!
b10 4
#12480
0!
#12490
1!
b11 4
#12500
0!
#12510
1!
b100 4
#12520
0!
#12530
1!
b101 4
#12540
0!
#12550
1!
b110 4
#12560
0!
#12570
1!
b111 4
#12580
0!
#12590
1!
b1000 4
#12600
0!
#12610
1!
b1001 4
#12620
0!
#12630
1!
b1010 4
#12640
0!
#12650
1!
b1011 4
#12660
0!
#12670
1!
b1100 4
#12680
0!
#12690
1!
b1101 4
#12700
0!
#12710
1!
b1110 4
#12720
0!
#12730
1!
b1111 4
#12740
0!
#12750
1!
b10000 4
#12760
0!
#12770
1!
b10001 4
#12780
0!
#12790
1!
b10010 4
#12800
0!
#12810
1!
b10011 4
#12820
0!
#12830
1!
b10100 4
#12840
0!
#12850
1!
b10101 4
#12860
0!
#12870
1!
b10110 4
#12880
0!
#12890
1!
b10111 4
#12900
0!
#12910
1!
b11000 4
#12920
0!
#12930
1!
b11001 4
#12940
0!
#12950
1!
b11010 4
#12960
0!
#12970
1!
b11011 4
#12980
0!
#12990
1!
b11100 4
#13000
0!
#13010
1!
b11101 4
#13020
0!
#13030
1!
b11110 4
#13040
0!
#13050
1!
b11111 4
#13060
0!
#13070
1!
b100000 4
#13080
0!
#13090
1!
b100001 4
#13100
0!
#13110
1!
b100010 4
#13120
0!
#13130
1!
b100011 4
#13140
0!
#13150
1!
b100100 4
#13160
0!
#13170
1!
b100101 4
#13180
0!
#13190
1!
b100110 4
#13200
0!
#13210
1!
b100111 4
#13220
0!
#13230
1!
b101000 4
#13240
0!
#13250
1!
b101001 4
#13260
0!
#13270
1!
b101010 4
#13280
0!
#13290
1!
b101011 4
#13300
0!
#13310
1!
b101100 4
#13320
0!
#13330
1!
b101101 4
#13340
0!
#13350
1!
b101110 4
#13360
0!
#13370
1!
b101111 4
#13380
0!
#13390
1!
b110000 4
#13400
0!
#13410
1!
b110001 4
#13420
0!
#13430
1!
b110010 4
#13440
0!
#13450
1!
b0 4
10
12
b101 5
#13460
0!
#13470
1!
b1 4
#13480
0!
#13490
1!
b10 4
#13500
0!
#13510
1!
b11 4
#13520
0!
#13530
1!
b100 4
#13540
0!
#13550
1!
b101 4
#13560
0!
#13570
1!
b110 4
#13580
0!
#13590
1!
b111 4
#13600
0!
#13610
1!
b1000 4
#13620
0!
#13630
1!
b1001 4
#13640
0!
#13650
1!
b1010 4
#13660
0!
#13670
1!
b1011 4
#13680
0!
#13690
1!
b1100 4
#13700
0!
#13710
1!
b1101 4
#13720
0!
#13730
1!
b1110 4
#13740
0!
#13750
1!
b1111 4
#13760
0!
#13770
1!
b10000 4
#13780
0!
#13790
1!
b10001 4
#13800
0!
#13810
1!
b10010 4
#13820
0!
#13830
1!
b10011 4
#13840
0!
#13850
1!
b10100 4
#13860
0!
#13870
1!
b10101 4
#13880
0!
#13890
1!
b10110 4
#13900
0!
#13910
1!
b10111 4
#13920
0!
#13930
1!
b11000 4
#13940
0!
#13950
1!
b11001 4
#13960
0!
#13970
1!
b11010 4
#13980
0!
#13990
1!
b11011 4
#14000
0!
#14010
1!
b11100 4
#14020
0!
#14030
1!
b11101 4
#14040
0!
#14050
1!
b11110 4
#14060
0!
#14070
1!
b11111 4
#14080
0!
#14090
1!
b100000 4
#14100
0!
#14110
1!
b100001 4
#14120
0!
#14130
1!
b100010 4
#14140
0!
#14150
1!
b100011 4
#14160
0!
#14170
1!
b100100 4
#14180
0!
#14190
1!
b100101 4
#14200
0!
#14210
1!
b100110 4
#14220
0!
#14230
1!
b100111 4
#14240
0!
#14250
1!
b101000 4
#14260
0!
#14270
1!
b101001 4
#14280
0!
#14290
1!
b101010 4
#14300
0!
#14310
1!
b101011 4
#14320
0!
#14330
1!
b101100 4
#14340
0!
#14350
1!
b101101 4
#14360
0!
#14370
1!
b101110 4
#14380
0!
#14390
1!
b101111 4
#14400
0!
#14410
1!
b110000 4
#14420
0!
#14430
1!
b110001 4
#14440
0!
#14450
1!
b110010 4
#14460
0!
#14470
1!
b0 4
00
#14480
0!
#14490
1!
b1 4
#14500
0!
#14510
1!
b10 4
#14520
0!
#14530
1!
b11 4
#14540
0!
#14550
1!
b100 4
#14560
0!
#14570
1!
b101 4
#14580
0!
